[ {
  "id": "576953266da587cf2f8b456a",
  "name": "ывапывапывапывапыв",
  "type": "email",
  "company_id": ",
  "templateJson": {
    "entityMap": [],
    "blocks": [ {
      "key": "a9gq2",
      "text": "ывавыпвыапыавпывапы",
      "type": "unstyled",
      "depth": 0,
      "inlineStyleRanges": [],
      "entityRanges": []
    } ]
  },
  " +
    " +
  " +
  " +
  "": "<table style=\"width:100%;background-color:#ffffff;\" data-reactroot=\"\" data-reactid=\"1\" data-react-checksum=\"-467549482\"><tbody data-reactid=\"2\"><tr data-reactid=\"3\"><td data-reactid=\"4\"><table style=\"width":100%;\" data-reactid=\"5\"><tbody data-reactid=\"6\"><tr data-reactid=\"7\"><td data-reactid=\"8\"><span data-reactid=\"9\">ывавыпвыапыавпывапы</span></td></tr></tbody></table></td></tr></tbody></table>"
} ]